<?xml version="1.0" encoding="UTF-8"?>
<svg width="150px" height="150px" viewBox="0 0 150 150" version="1.1" xmlns="http://www.w3.org/2000/svg" xmlns:xlink="http://www.w3.org/1999/xlink">
    <!-- Generator: Sketch 42 (36781) - http://www.bohemiancoding.com/sketch -->
    <title>Proyecto 4 - Pixel Art</title>
    <desc>Created with Sketch.</desc>
    <defs>
        <circle id="path-1" cx="75" cy="75" r="40"></circle>
    </defs>
    <g id="Page-1" stroke="none" stroke-width="1" fill="none" fill-rule="evenodd">
        <g id="Proyecto-4---Pixel-Art">
            <circle id="Oval-2" fill="#00A196" cx="75" cy="75" r="40"></circle>
            <polygon id="Star" fill="#FFDC81" points="114 117.950155 110.291796 120 111 115.658359 108 112.583592 112.145898 111.950155 114 108 115.854102 111.950155 120 112.583592 117 115.658359 117.708204 120"></polygon>
            <mask id="mask-2" fill="white">
                <use xlink:href="#path-1"></use>
            </mask>
            <use id="Mask" fill="#00A196" xlink:href="#path-1"></use>
            <g id="Group-3" mask="url(#mask-2)">
                <g transform="translate(33.000000, 34.000000)">
                    <g id="Group" transform="translate(1.000000, 13.000000)">
                        <path d="M1.9979015,33.5789474 C0.89449097,33.5789474 0,34.4770682 0,35.5774246 L0,56.0015228 C0,57.1052513 0.901004575,58 1.99899985,58 L10.529302,58 C11.6333192,58 12.5283019,57.1021308 12.5283019,55.997353 L12.5283019,47.7921207 C12.5283019,46.6860893 13.42539,45.7894737 14.5262034,45.7894737 L21.4926645,45.7894737 C22.5960751,45.7894737 23.490566,46.6873428 23.490566,47.7921207 L23.490566,55.997353 C23.490566,57.1033844 24.3915706,58 25.4895659,58 L34.0198681,58 C35.1238852,58 36.0188679,57.1021308 36.0188679,55.997353 L36.0188679,47.7921207 C36.0188679,46.6860893 36.915956,45.7894737 38.0167694,45.7894737 L44.9832306,45.7894737 C46.0866411,45.7894737 46.9811321,46.6873428 46.9811321,47.7921207 L46.9811321,55.997353 C46.9811321,57.1033844 47.8821367,58 48.9801319,58 L57.5104341,58 C58.6144512,58 59.509434,57.1021308 59.509434,55.997353 L59.509434,47.7921207 C59.509434,46.6860893 60.406522,45.7894737 61.5073355,45.7894737 L68.4737966,45.7894737 C69.5772071,45.7894737 70.4716981,46.6873428 70.4716981,47.7921207 L70.4716981,55.997353 C70.4716981,57.1033844 71.3727027,58 72.470698,58 L81.0010002,58 C82.1050173,58 83,57.1018792 83,56.0015228 L83,35.5774246 C83,34.4736961 82.0989954,33.5789474 81.0010002,33.5789474 L72.470698,33.5789474 C71.3666808,33.5789474 70.4716981,32.6814466 70.4716981,31.5872404 L70.4716981,12.6759175 C70.4716981,11.5759281 69.57461,10.6842105 68.4737966,10.6842105 L61.5073355,10.6842105 C60.4039249,10.6842105 59.509434,9.79165755 59.509434,8.67459225 L59.509434,2.00961828 C59.509434,0.899736749 58.619075,0 57.5086786,0 L25.4913214,0 C24.3863347,0 23.490566,0.892552977 23.490566,2.00961828 L23.490566,8.67459225 C23.490566,9.78447378 22.5895615,10.6842105 21.4915662,10.6842105 L12.961264,10.6842105 C11.8572469,10.6842105 10.9622642,11.5817113 10.9622642,12.6759175 L10.9622642,31.5872404 C10.9622642,32.6872298 10.0651761,33.5789474 8.96436265,33.5789474 L1.9979015,33.5789474 Z" id="z" fill="#FFDC81"></path>
                        <path d="M34.9423132,22.3985573 L25.6847066,22.3985573 C24.8265481,22.3985573 24.1306347,23.0851517 24.1306347,23.9321611 L24.1306347,33.0678389 C24.1306347,33.9148483 24.8265481,34.6014427 25.6847066,34.6014427 L34.9423132,34.6014427 C35.8004717,34.6014427 36.4963851,33.9148483 36.4963851,33.0678389 L36.4963851,23.9321611 C36.4963851,23.0851517 35.8004717,22.3985573 34.9423132,22.3985573 Z" id="Shape-Copy-11" fill="#EDEDED" fill-rule="nonzero"></path>
                        <path d="M57.8116785,22 L48.5540719,22 C47.6959134,22 47,22.6865944 47,23.5336038 L47,32.6692817 C47,33.516291 47.6959134,34.2028855 48.5540719,34.2028855 L57.8116785,34.2028855 C58.6698371,34.2028855 59.3657505,33.516291 59.3657505,32.6692817 L59.3657505,23.5336038 C59.3657505,22.6865944 58.6698371,22 57.8116785,22 Z" id="Shape-Copy-13" fill="#EDEDED" fill-rule="nonzero"></path>
                    </g>
                    <g id="Group-2" stroke-linecap="square" opacity="0.366111866">
                        <path d="M24.5,1.63100663 L24.5,85.3250481" id="Line" stroke="#EDEDED"></path>
                        <path d="M37.5,1.63100663 L37.5,85.3250481" id="Line-Copy" stroke="#EDEDED"></path>
                        <path d="M48.5,1.63100663 L48.5,85.3250481" id="Line-Copy-2" stroke="#EDEDED"></path>
                        <path d="M60.5,1.63100663 L60.5,85.3250481" id="Line-Copy-3" stroke="#EDEDED"></path>
                        <path d="M71.5,1.63100663 L71.5,85.3250481" id="Line-Copy-4" stroke="#EDEDED"></path>
                        <path d="M11.5,1.63100663 L11.5,85.3250481" id="Line-Copy-5" stroke="#EDEDED"></path>
                        <polyline id="Line" stroke="#EDEDED" points="0.5 35.5 84 35.5 86.5 37"></polyline>
                        <path d="M0.5,46.5 L85.5,46.5" id="Line-Copy-6" stroke="#EDEDED"></path>
                        <path d="M6.5,58.5 L77.5,58.5" id="Line-Copy-7" stroke="#EDEDED"></path>
                        <path d="M6.5,70.5 L77.5,70.5" id="Line-Copy-8" stroke="#EDEDED"></path>
                        <path d="M6.5,12.5 L77.5,12.5" id="Line-Copy-7" stroke="#EDEDED"></path>
                        <path d="M6.5,24.5 L77.5,24.5" id="Line-Copy-8" stroke="#EDEDED"></path>
                    </g>
                </g>
            </g>
        </g>
    </g>
</svg>